…
``` r
baby_df
```

    # A tibble: 4,342 x 20
       babysex bhead blength   bwt delwt fincome frace gaweeks malform menarche
       <fct>   <dbl>   <dbl> <dbl> <dbl>   <dbl> <fct>   <dbl> <fct>      <dbl>
     1 2          34      51  3629   177      35 1        39.9 0             13
     2 1          34      48  3062   156      65 2        25.9 0             14
     3 2          36      50  3345   148      85 1        39.9 0             12
     4 1          34      52  3062   157      55 1        40   0             14
     5 2          34      52  3374   156       5 1        41.6 0             13
     6 1          33      52  3374   129      55 1        40.7 0             12
     7 2          33      46  2523   126      96 2        40.3 0             14
     8 2          33      49  2778   140       5 1        37.4 0             12
     9 1          36      52  3515   146      85 1        40.3 0             11
    10 1          33      50  3459   169      75 2        40.7 0             12
    # ... with 4,332 more rows, and 10 more variables: mheight <dbl>, momage <dbl>,
    #   mrace <fct>, parity <dbl>, pnumlbw <dbl>, pnumsga <dbl>, ppbmi <dbl>,
    #   ppwt <dbl>, smoken <dbl>, wtgain <dbl>
…
We can already visually see that the scatter plots for model 1 and model
2 are more aggregated and compact that the plot for my model (the
majority of residuals and prediction values seem to be condensed within
a smaller range of values than in my model).

We will compare all 3 models with cross validation of average RMSEs.

``` r
cv_df =
  crossv_mc(baby_df, 100)

cv_df %>% pull(train) %>% .[[1]] %>% as_tibble
```

    # A tibble: 3,473 x 20
       babysex bhead blength   bwt delwt fincome frace gaweeks malform menarche
       <fct>   <dbl>   <dbl> <dbl> <dbl>   <dbl> <fct>   <dbl> <fct>      <dbl>
     1 2          34      51  3629   177      35 1        39.9 0             13
     2 2          33      46  2523   126      96 2        40.3 0             14
     3 2          33      49  2778   140       5 1        37.4 0             12
     4 1          36      52  3515   146      85 1        40.3 0             11
     5 1          33      50  3459   169      75 2        40.7 0             12
     6 2          35      51  3317   130      55 1        43.4 0             13
     7 1          35      51  3459   146      55 1        39.4 0             12
     8 2          35      48  3175   158      75 1        39.7 0             13
     9 1          36      53  3629   147      75 1        41.3 0             11
    10 1          35      51  3544   129      65 1        39.6 0             12
    # ... with 3,463 more rows, and 10 more variables: mheight <dbl>, momage <dbl>,
    #   mrace <fct>, parity <dbl>, pnumlbw <dbl>, pnumsga <dbl>, ppbmi <dbl>,
    #   ppwt <dbl>, smoken <dbl>, wtgain <dbl>

``` r
cv_df %>% pull(test) %>% .[[1]] %>% as_tibble
```

    # A tibble: 869 x 20
       babysex bhead blength   bwt delwt fincome frace gaweeks malform menarche
       <fct>   <dbl>   <dbl> <dbl> <dbl>   <dbl> <fct>   <dbl> <fct>      <dbl>
     1 1          34      48  3062   156      65 2        25.9 0             14
     2 2          36      50  3345   148      85 1        39.9 0             12
     3 1          34      52  3062   157      55 1        40   0             14
     4 2          34      52  3374   156       5 1        41.6 0             13
     5 1          33      52  3374   129      55 1        40.7 0             12
     6 2          36      51  2977   135      45 1        41.7 0             13
     7 1          34      63  3175   143      25 1        41.9 0             13
     8 2          34      52  3629   112      25 1        38   0             10
     9 1          35      53  3175   130      45 1        40.4 0             13
    10 1          35      52  3232   121      75 3        42.3 0             13
    # ... with 859 more rows, and 10 more variables: mheight <dbl>, momage <dbl>,
    #   mrace <fct>, parity <dbl>, pnumlbw <dbl>, pnumsga <dbl>, ppbmi <dbl>,
    #   ppwt <dbl>, smoken <dbl>, wtgain <dbl>
…
weather_df
```

    # A tibble: 365 x 6
       name           id          date        prcp  tmax  tmin
       <chr>          <chr>       <date>     <dbl> <dbl> <dbl>
     1 CentralPark_NY USW00094728 2017-01-01     0   8.9   4.4
     2 CentralPark_NY USW00094728 2017-01-02    53   5     2.8
     3 CentralPark_NY USW00094728 2017-01-03   147   6.1   3.9
     4 CentralPark_NY USW00094728 2017-01-04     0  11.1   1.1
     5 CentralPark_NY USW00094728 2017-01-05     0   1.1  -2.7
     6 CentralPark_NY USW00094728 2017-01-06    13   0.6  -3.8
     7 CentralPark_NY USW00094728 2017-01-07    81  -3.2  -6.6
     8 CentralPark_NY USW00094728 2017-01-08     0  -3.8  -8.8
     9 CentralPark_NY USW00094728 2017-01-09     0  -4.9  -9.9
    10 CentralPark_NY USW00094728 2017-01-10     0   7.8  -6  
    # ... with 355 more rows
…
bootstrap_df
```

    # A tibble: 5,000 x 5
       strap_id r.squared intercept  tmin   LOG
       <chr>        <dbl>     <dbl> <dbl> <dbl>
     1 0001         0.901      7.55  1.02  2.04
     2 0002         0.918      6.74  1.06  1.97
     3 0003         0.907      7.46  1.02  2.03
     4 0004         0.911      7.29  1.02  2.01
     5 0005         0.919      7.21  1.04  2.01
     6 0006         0.927      7.24  1.05  2.03
     7 0007         0.931      6.90  1.06  1.99
     8 0008         0.919      7.03  1.06  2.01
     9 0009         0.904      6.98  1.05  1.99
    10 0010         0.893      7.53  1.04  2.05
    # ... with 4,990 more rows
…
